
extDB3: https://bitbucket.org/torndeco/extdb3/wiki/Home
extDB3: Version: 1.031
extDB3: Windows Version
Message: All development for extDB3 is done on a Linux Dedicated Server
Message: If you would like to Donate to extDB3 Development
Message: https://www.paypal.com/cgi-bin/webscr?cmd=_s-xclick&hosted_button_id=2SUEFTGABTAM2
Message: Also leave a message if there is any particular feature you would like to see added.
Message: Thanks for all the people that have donated.
Message: Torndeco: 18/05/15


extDB3: Found extdb3-conf.ini
extDB3: Detected 8 Cores, Setting up 6 Worker Threads
extDB3: ...
extDB3: ...
extDB3: ...
extDB3: ...
extDB3: ...
extDB3: ...


[19:21:26:061480 +01:00] [Thread 10164] extDB3: SQL: Initialized: Add Quotes around TEXT Datatypes mode: 2
[19:21:26:061555 +01:00] [Thread 10164] extDB3: SQL: Initialized: NULL = ""
[19:21:26:062159 +01:00] [Thread 10164] extDB3: Locked
[19:21:26:072696 +01:00] [Thread 15336] extDB3: SQL: Error MariaDBQueryException: The user specified as a definer ('arma3'@'localhost') does not exist
[19:21:26:072696 +01:00] [Thread 3084] extDB3: SQL: Error MariaDBQueryException: The user specified as a definer ('arma3'@'localhost') does not exist
[19:21:26:072696 +01:00] [Thread 9704] extDB3: SQL: Error MariaDBQueryException: The user specified as a definer ('arma3'@'localhost') does not exist
[19:21:26:072762 +01:00] [Thread 15336] extDB3: SQL: Error MariaDBQueryException: Input: CALL deleteOldHouses
[19:21:26:072798 +01:00] [Thread 3084] extDB3: SQL: Error MariaDBQueryException: Input: CALL deleteDeadVehicles
[19:21:26:072847 +01:00] [Thread 9704] extDB3: SQL: Error MariaDBQueryException: Input: CALL resetLifeVehicles
[19:21:26:073059 +01:00] [Thread 6732] extDB3: SQL: Error MariaDBQueryException: The user specified as a definer ('arma3'@'localhost') does not exist
[19:21:26:073083 +01:00] [Thread 6732] extDB3: SQL: Error MariaDBQueryException: Input: CALL deleteOldGangs
