
extDB3: https://bitbucket.org/torndeco/extdb3/wiki/Home
extDB3: Version: 1.031
extDB3: Windows Version
Message: All development for extDB3 is done on a Linux Dedicated Server
Message: If you would like to Donate to extDB3 Development
Message: https://www.paypal.com/cgi-bin/webscr?cmd=_s-xclick&hosted_button_id=2SUEFTGABTAM2
Message: Also leave a message if there is any particular feature you would like to see added.
Message: Thanks for all the people that have donated.
Message: Torndeco: 18/05/15


extDB3: Found extdb3-conf.ini
extDB3: Detected 8 Cores, Setting up 6 Worker Threads
extDB3: ...
extDB3: ...
extDB3: ...
extDB3: ...
extDB3: ...
extDB3: ...


[14:00:00:441709 +01:00] [Thread 988] extDB3: SQL: Initialized: Add Quotes around TEXT Datatypes mode: 2
[14:00:00:441775 +01:00] [Thread 988] extDB3: SQL: Initialized: NULL = ""
[14:00:00:442405 +01:00] [Thread 988] extDB3: Locked
[14:00:00:526060 +01:00] [Thread 11836] extDB3: SQL: Error MariaDBQueryException: The user specified as a definer ('arma3'@'localhost') does not exist
[14:00:00:526060 +01:00] [Thread 17532] extDB3: SQL: Error MariaDBQueryException: The user specified as a definer ('arma3'@'localhost') does not exist
[14:00:00:526060 +01:00] [Thread 22640] extDB3: SQL: Error MariaDBQueryException: The user specified as a definer ('arma3'@'localhost') does not exist
[14:00:00:526137 +01:00] [Thread 11836] extDB3: SQL: Error MariaDBQueryException: Input: CALL deleteOldHouses
[14:00:00:526188 +01:00] [Thread 17532] extDB3: SQL: Error MariaDBQueryException: Input: CALL resetLifeVehicles
[14:00:00:526239 +01:00] [Thread 22640] extDB3: SQL: Error MariaDBQueryException: Input: CALL deleteDeadVehicles
[14:00:00:526317 +01:00] [Thread 18620] extDB3: SQL: Error MariaDBQueryException: The user specified as a definer ('arma3'@'localhost') does not exist
[14:00:00:526404 +01:00] [Thread 18620] extDB3: SQL: Error MariaDBQueryException: Input: CALL deleteOldGangs
[15:02:48:569484 +01:00] [Thread 17532] extDB3: SQL: Error MariaDBQueryException: Unknown column 'id' in 'where clause'
[15:02:48:569720 +01:00] [Thread 17532] extDB3: SQL: Error MariaDBQueryException: Input: UPDATE players SET coplevel='2' WHERE id='76561198371278078'
[15:07:49:736220 +01:00] [Thread 17532] extDB3: SQL: Error MariaDBQueryException: Unknown column 'medicllevel' in 'field list'
[15:07:49:736334 +01:00] [Thread 17532] extDB3: SQL: Error MariaDBQueryException: Input: UPDATE players SET medicllevel='5' WHERE pid='76561198371278078'
