
extDB3: https://bitbucket.org/torndeco/extdb3/wiki/Home
extDB3: Version: 1.031
extDB3: Windows Version
Message: All development for extDB3 is done on a Linux Dedicated Server
Message: If you would like to Donate to extDB3 Development
Message: https://www.paypal.com/cgi-bin/webscr?cmd=_s-xclick&hosted_button_id=2SUEFTGABTAM2
Message: Also leave a message if there is any particular feature you would like to see added.
Message: Thanks for all the people that have donated.
Message: Torndeco: 18/05/15


extDB3: Found extdb3-conf.ini
extDB3: Detected 8 Cores, Setting up 6 Worker Threads
extDB3: ...
extDB3: ...
extDB3: ...
extDB3: ...
extDB3: ...
extDB3: ...


[05:49:01:671242 +01:00] [Thread 18616] extDB3: SQL: Initialized: Add Quotes around TEXT Datatypes mode: 2
[05:49:01:671299 +01:00] [Thread 18616] extDB3: SQL: Initialized: NULL = ""
[05:49:01:671659 +01:00] [Thread 18616] extDB3: Locked
[05:49:01:680936 +01:00] [Thread 12268] extDB3: SQL: Error MariaDBQueryException: The user specified as a definer ('arma3'@'localhost') does not exist
[05:49:01:680933 +01:00] [Thread 19556] extDB3: SQL: Error MariaDBQueryException: The user specified as a definer ('arma3'@'localhost') does not exist
[05:49:01:680957 +01:00] [Thread 20876] extDB3: SQL: Error MariaDBQueryException: The user specified as a definer ('arma3'@'localhost') does not exist
[05:49:01:681010 +01:00] [Thread 12268] extDB3: SQL: Error MariaDBQueryException: Input: CALL deleteDeadVehicles
[05:49:01:681059 +01:00] [Thread 19556] extDB3: SQL: Error MariaDBQueryException: Input: CALL resetLifeVehicles
[05:49:01:681092 +01:00] [Thread 20876] extDB3: SQL: Error MariaDBQueryException: Input: CALL deleteOldHouses
[05:49:01:681199 +01:00] [Thread 21800] extDB3: SQL: Error MariaDBQueryException: The user specified as a definer ('arma3'@'localhost') does not exist
[05:49:01:681234 +01:00] [Thread 21800] extDB3: SQL: Error MariaDBQueryException: Input: CALL deleteOldGangs
