
extDB3: https://bitbucket.org/torndeco/extdb3/wiki/Home
extDB3: Version: 1.031
extDB3: Windows Version
Message: All development for extDB3 is done on a Linux Dedicated Server
Message: If you would like to Donate to extDB3 Development
Message: https://www.paypal.com/cgi-bin/webscr?cmd=_s-xclick&hosted_button_id=2SUEFTGABTAM2
Message: Also leave a message if there is any particular feature you would like to see added.
Message: Thanks for all the people that have donated.
Message: Torndeco: 18/05/15


extDB3: Found extdb3-conf.ini
extDB3: Detected 8 Cores, Setting up 6 Worker Threads
extDB3: ...
extDB3: ...
extDB3: ...
extDB3: ...
extDB3: ...
extDB3: ...


[18:50:21:087267 +01:00] [Thread 18320] extDB3: SQL: Initialized: Add Quotes around TEXT Datatypes mode: 2
[18:50:21:087361 +01:00] [Thread 18320] extDB3: SQL: Initialized: NULL = ""
[18:50:21:088079 +01:00] [Thread 18320] extDB3: Locked
[18:50:21:089921 +01:00] [Thread 13164] extDB3: SQL: Error MariaDBQueryException: The user specified as a definer ('arma3'@'localhost') does not exist
[18:50:21:089996 +01:00] [Thread 13164] extDB3: SQL: Error MariaDBQueryException: Input: CALL resetLifeVehicles
[18:50:21:090450 +01:00] [Thread 11648] extDB3: SQL: Error MariaDBQueryException: The user specified as a definer ('arma3'@'localhost') does not exist
[18:50:21:090515 +01:00] [Thread 11648] extDB3: SQL: Error MariaDBQueryException: Input: CALL deleteOldGangs
[18:50:21:102823 +01:00] [Thread 16360] extDB3: SQL: Error MariaDBQueryException: The user specified as a definer ('arma3'@'localhost') does not exist
[18:50:21:102929 +01:00] [Thread 16360] extDB3: SQL: Error MariaDBQueryException: Input: CALL deleteDeadVehicles
[18:50:21:103272 +01:00] [Thread 10772] extDB3: SQL: Error MariaDBQueryException: The user specified as a definer ('arma3'@'localhost') does not exist
[18:50:21:103331 +01:00] [Thread 10772] extDB3: SQL: Error MariaDBQueryException: Input: CALL deleteOldHouses
