
extDB3: https://bitbucket.org/torndeco/extdb3/wiki/Home
extDB3: Version: 1.031
extDB3: Windows Version
Message: All development for extDB3 is done on a Linux Dedicated Server
Message: If you would like to Donate to extDB3 Development
Message: https://www.paypal.com/cgi-bin/webscr?cmd=_s-xclick&hosted_button_id=2SUEFTGABTAM2
Message: Also leave a message if there is any particular feature you would like to see added.
Message: Thanks for all the people that have donated.
Message: Torndeco: 18/05/15


extDB3: Found extdb3-conf.ini
extDB3: Detected 8 Cores, Setting up 6 Worker Threads
extDB3: ...
extDB3: ...
extDB3: ...
extDB3: ...
extDB3: ...
extDB3: ...


[19:51:02:479734 +01:00] [Thread 10960] extDB3: SQL: Initialized: Add Quotes around TEXT Datatypes mode: 2
[19:51:02:479838 +01:00] [Thread 10960] extDB3: SQL: Initialized: NULL = ""
[19:51:02:481147 +01:00] [Thread 10960] extDB3: Locked
[19:51:02:508856 +01:00] [Thread 11680] extDB3: SQL: Error MariaDBQueryException: The user specified as a definer ('arma3'@'localhost') does not exist
[19:51:02:508874 +01:00] [Thread 17064] extDB3: SQL: Error MariaDBQueryException: The user specified as a definer ('arma3'@'localhost') does not exist
[19:51:02:508964 +01:00] [Thread 11680] extDB3: SQL: Error MariaDBQueryException: Input: CALL deleteDeadVehicles
[19:51:02:509058 +01:00] [Thread 17064] extDB3: SQL: Error MariaDBQueryException: Input: CALL resetLifeVehicles
[19:51:02:509357 +01:00] [Thread 16188] extDB3: SQL: Error MariaDBQueryException: The user specified as a definer ('arma3'@'localhost') does not exist
[19:51:02:509374 +01:00] [Thread 1304] extDB3: SQL: Error MariaDBQueryException: The user specified as a definer ('arma3'@'localhost') does not exist
[19:51:02:509469 +01:00] [Thread 1304] extDB3: SQL: Error MariaDBQueryException: Input: CALL deleteOldGangs
[19:51:02:509411 +01:00] [Thread 16188] extDB3: SQL: Error MariaDBQueryException: Input: CALL deleteOldHouses
