
extDB3: https://bitbucket.org/torndeco/extdb3/wiki/Home
extDB3: Version: 1.031
extDB3: Windows Version
Message: All development for extDB3 is done on a Linux Dedicated Server
Message: If you would like to Donate to extDB3 Development
Message: https://www.paypal.com/cgi-bin/webscr?cmd=_s-xclick&hosted_button_id=2SUEFTGABTAM2
Message: Also leave a message if there is any particular feature you would like to see added.
Message: Thanks for all the people that have donated.
Message: Torndeco: 18/05/15


extDB3: Found extdb3-conf.ini
extDB3: Detected 8 Cores, Setting up 6 Worker Threads
extDB3: ...
extDB3: ...
extDB3: ...
extDB3: ...
extDB3: ...
extDB3: ...


[21:59:22:957659 +01:00] [Thread 19820] extDB3: SQL: Initialized: Add Quotes around TEXT Datatypes mode: 2
[21:59:22:957731 +01:00] [Thread 19820] extDB3: SQL: Initialized: NULL = ""
[21:59:22:958076 +01:00] [Thread 19820] extDB3: Locked
[21:59:22:965074 +01:00] [Thread 20548] extDB3: SQL: Error MariaDBQueryException: The user specified as a definer ('arma3'@'localhost') does not exist
[21:59:22:965075 +01:00] [Thread 15844] extDB3: SQL: Error MariaDBQueryException: The user specified as a definer ('arma3'@'localhost') does not exist
[21:59:22:965074 +01:00] [Thread 20696] extDB3: SQL: Error MariaDBQueryException: The user specified as a definer ('arma3'@'localhost') does not exist
[21:59:22:965132 +01:00] [Thread 20548] extDB3: SQL: Error MariaDBQueryException: Input: CALL resetLifeVehicles
[21:59:22:965170 +01:00] [Thread 15844] extDB3: SQL: Error MariaDBQueryException: Input: CALL deleteDeadVehicles
[21:59:22:965201 +01:00] [Thread 20696] extDB3: SQL: Error MariaDBQueryException: Input: CALL deleteOldHouses
[21:59:22:965260 +01:00] [Thread 20728] extDB3: SQL: Error MariaDBQueryException: The user specified as a definer ('arma3'@'localhost') does not exist
[21:59:22:965307 +01:00] [Thread 20728] extDB3: SQL: Error MariaDBQueryException: Input: CALL deleteOldGangs
